module ledgerbook

go 1.17

require (
	github.com/docker/go-connections v0.4.0
	github.com/gofiber/fiber/v2 v2.24.0
	github.com/golang/mock v1.6.0
	github.com/stretchr/testify v1.7.0
	github.com/testcontainers/testcontainers-go v0.12.0
	go.mongodb.org/mongo-driver v1.8.1
)

require (
	github.com/Azure/go-ansiterm v0.0.0-20170929234023-d6e3b3328b78 // indirect
	github.com/Microsoft/go-winio v0.4.17-0.20210211115548-6eac466e5fa3 // indirect
	github.com/Microsoft/hcsshim v0.8.16 // indirect
	github.com/andybalholm/brotli v1.0.2 // indirect
	github.com/cenkalti/backoff v2.2.1+incompatible // indirect
	github.com/containerd/cgroups v0.0.0-20210114181951-8a68de567b68 // indirect
	github.com/containerd/containerd v1.5.0-beta.4 // indirect
	github.com/davecgh/go-spew v1.1.1 // indirect
	github.com/docker/distribution v2.7.1+incompatible // indirect
	github.com/docker/docker v20.10.11+incompatible // indirect
	github.com/docker/go-units v0.4.0 // indirect
	github.com/go-stack/stack v1.8.0 // indirect
	github.com/gogo/protobuf v1.3.2 // indirect
	github.com/golang/groupcache v0.0.0-20200121045136-8c9f03a8e57e // indirect
	github.com/golang/protobuf v1.5.2 // indirect
	github.com/golang/snappy v0.0.3 // indirect
	github.com/google/uuid v1.3.0 // indirect
	github.com/klauspost/compress v1.13.6 // indirect
	github.com/magiconair/properties v1.8.5 // indirect
	github.com/moby/sys/mount v0.2.0 // indirect
	github.com/moby/sys/mountinfo v0.5.0 // indirect
	github.com/moby/term v0.0.0-20201216013528-df9cb8a40635 // indirect
	github.com/morikuni/aec v0.0.0-20170113033406-39771216ff4c // indirect
	github.com/opencontainers/go-digest v1.0.0 // indirect
	github.com/opencontainers/image-spec v1.0.1 // indirect
	github.com/opencontainers/runc v1.0.2 // indirect
	github.com/pkg/errors v0.9.1 // indirect
	github.com/pmezard/go-difflib v1.0.0 // indirect
	github.com/sirupsen/logrus v1.8.1 // indirect
	github.com/valyala/bytebufferpool v1.0.0 // indirect
	github.com/valyala/fasthttp v1.31.0 // indirect
	github.com/valyala/tcplisten v1.0.0 // indirect
	github.com/xdg-go/pbkdf2 v1.0.0 // indirect
	github.com/xdg-go/scram v1.0.2 // indirect
	github.com/xdg-go/stringprep v1.0.2 // indirect
	github.com/youmark/pkcs8 v0.0.0-20181117223130-1be2e3e5546d // indirect
	go.opencensus.io v0.22.3 // indirect
	golang.org/x/crypto v0.0.0-20210513164829-c07d793c2f9a // indirect
	golang.org/x/net v0.0.0-20211108170745-6635138e15ea // indirect
	golang.org/x/sync v0.0.0-20210220032951-036812b2e83c // indirect
	golang.org/x/sys v0.0.0-20211109184856-51b60fd695b3 // indirect
	golang.org/x/text v0.3.6 // indirect
	google.golang.org/genproto v0.0.0-20201110150050-8816d57aaa9a // indirect
	google.golang.org/grpc v1.33.2 // indirect
	google.golang.org/protobuf v1.27.1 // indirect
	gopkg.in/yaml.v2 v2.4.0 // indirect
	gopkg.in/yaml.v3 v3.0.0-20200313102051-9f266ea9e77c // indirect
)
